<svg width="32" height="32" viewBox="0 0 32 32" fill="none" xmlns="http://www.w3.org/2000/svg">
<path d="M16 20C20.4183 20 24 16.4183 24 12C24 7.58172 20.4183 4 16 4C11.5817 4 8 7.58172 8 12C8 16.4183 11.5817 20 16 20Z" stroke="black" stroke-miterlimit="10"/>
<path d="M3.87354 26.9988C5.10299 24.8708 6.8708 23.1037 8.99939 21.8752C11.128 20.6467 13.5424 20 16.0001 20C18.4577 20 20.8721 20.6468 23.0007 21.8754C25.1292 23.1039 26.897 24.871 28.1264 26.9991" stroke="black" stroke-linecap="round" stroke-linejoin="round"/>
</svg>
