<svg width="172" height="66" viewBox="0 0 172 66" fill="none" xmlns="http://www.w3.org/2000/svg">
<path d="M52.4525 64.3975C52.8154 64.3975 53.143 64.3196 53.4358 64.1626C53.7279 64.0057 53.9802 63.7816 54.1902 63.4887C54.4006 63.1958 54.5634 62.8458 54.6786 62.4369C54.7938 62.0293 54.8522 61.5699 54.8522 61.0583C54.8522 60.5549 54.7938 60.1022 54.6786 59.6975C54.5634 59.2936 54.4006 58.9514 54.1902 58.671C53.9802 58.391 53.7279 58.1739 53.4358 58.0219C53.143 57.8691 52.8154 57.7928 52.4525 57.7928C52.0896 57.7928 51.7619 57.8691 51.4694 58.0219C51.1766 58.1739 50.9255 58.391 50.7152 58.671C50.5047 58.9514 50.3414 59.2936 50.2263 59.6975C50.1112 60.1022 50.0531 60.5549 50.0531 61.0583C50.0531 61.5699 50.1112 62.0293 50.2263 62.4369C50.3414 62.8458 50.5047 63.1958 50.7152 63.4887C50.9255 63.7816 51.1766 64.0057 51.4694 64.1626C51.7619 64.3196 52.0896 64.3975 52.4525 64.3975ZM52.4525 65.3002C51.9413 65.3002 51.4736 65.2016 51.0486 65.0035C50.624 64.806 50.259 64.5234 49.9546 64.1564C49.6493 63.7898 49.4119 63.3441 49.2433 62.8205C49.0743 62.2969 48.9897 61.7095 48.9897 61.0583C48.9897 60.4071 49.0743 59.8238 49.2433 59.3085C49.4119 58.7927 49.6493 58.3562 49.9546 57.997C50.259 57.6383 50.624 57.3641 51.0486 57.1747C51.4736 56.9846 51.9413 56.8902 52.4525 56.8902C52.9636 56.8902 53.4317 56.9871 53.8563 57.1806C54.2805 57.3748 54.648 57.6507 54.9573 58.009C55.2664 58.3682 55.5054 58.8052 55.6745 59.3206C55.8435 59.8359 55.9284 60.415 55.9284 61.0583C55.9284 61.7095 55.8435 62.2969 55.6745 62.8205C55.5054 63.3441 55.2664 63.7898 54.9573 64.1564C54.648 64.5234 54.2805 64.806 53.8563 65.0035C53.4317 65.2016 52.9636 65.3002 52.4525 65.3002Z" fill="white"/>
<path d="M60.9246 65.3002C60.5124 65.3002 60.1268 65.2405 59.7685 65.1216C59.4097 65.0019 59.1007 64.8035 58.841 64.5276C58.5812 64.2508 58.377 63.89 58.2283 63.4451C58.08 63.0002 58.0059 62.4514 58.0059 61.8002V57.038H59.0328V61.8255C59.0328 62.3118 59.0821 62.7194 59.1806 63.0496C59.2801 63.3797 59.4138 63.6432 59.5828 63.8407C59.7518 64.0392 59.952 64.1812 60.1827 64.2678C60.4134 64.3544 60.6611 64.3975 60.9246 64.3975C61.1968 64.3975 61.4482 64.3544 61.6794 64.2678C61.9101 64.1812 62.1118 64.0392 62.285 63.8407C62.4581 63.6432 62.5944 63.3797 62.6934 63.0496C62.7925 62.7194 62.8417 62.3118 62.8417 61.8255V57.038H63.8314V61.8002C63.8314 62.4514 63.7572 63.0002 63.6089 63.4451C63.4602 63.89 63.256 64.2508 62.9963 64.5276C62.7365 64.8035 62.4296 65.0019 62.0754 65.1216C61.7203 65.2405 61.3368 65.3002 60.9246 65.3002Z" fill="white"/>
<path d="M68.0736 65.1523V57.9046H65.6245V57.038H71.5611V57.9046H69.1124V65.1523H68.0736Z" fill="white"/>
<path d="M73.3916 65.1523V57.038H78.0668V57.9046H74.4177V60.6499H77.51V61.5156H74.4177V65.1523H73.3916Z" fill="white"/>
<path d="M80.8991 57.038H79.8726V65.1523H80.8991V57.038Z" fill="white"/>
<path d="M85.178 65.1523V57.9046H82.729V57.038H88.6656V57.9046H86.2169V65.1523H85.178Z" fill="white"/>
<path d="M95.5921 65.3002C95.0233 65.3002 94.4952 65.1937 94.0089 64.9791C93.5226 64.7645 93.1017 64.4716 92.7476 64.1005L93.366 63.3834C93.6544 63.6887 93.9945 63.934 94.3863 64.1191C94.7778 64.3051 95.1837 64.3975 95.6046 64.3975C96.1402 64.3975 96.5569 64.2762 96.8539 64.0326C97.1501 63.7898 97.2988 63.47 97.2988 63.0744C97.2988 62.8681 97.2636 62.6929 97.1937 62.5488C97.1237 62.4046 97.0283 62.2808 96.909 62.1772C96.7893 62.0745 96.6477 61.9816 96.4824 61.8988C96.3175 61.8172 96.1402 61.7298 95.9509 61.6395L94.7881 61.1321C94.5983 61.0505 94.4045 60.9506 94.2069 60.8358C94.0089 60.7203 93.8316 60.5803 93.675 60.415C93.5185 60.2501 93.3904 60.0542 93.2915 59.8276C93.1929 59.6014 93.1431 59.3392 93.1431 59.0422C93.1431 58.7373 93.207 58.4522 93.3345 58.1884C93.4625 57.9249 93.6398 57.6959 93.8668 57.5024C94.0934 57.3081 94.3614 57.1578 94.6704 57.0509C94.9799 56.9436 95.3196 56.8902 95.6911 56.8902C96.1775 56.8902 96.627 56.9829 97.0391 57.1686C97.4513 57.3537 97.8017 57.5948 98.0905 57.8918L97.5337 58.56C97.2868 58.3205 97.0122 58.1329 96.7115 57.997C96.4103 57.8607 96.0702 57.7928 95.6911 57.7928C95.2372 57.7928 94.8726 57.898 94.5963 58.1085C94.3201 58.3189 94.1821 58.6093 94.1821 58.9809C94.1821 59.178 94.221 59.3445 94.2997 59.4817C94.378 59.6175 94.4828 59.7372 94.6149 59.84C94.7471 59.9435 94.8908 60.0343 95.0478 60.1117C95.2044 60.1901 95.3652 60.2622 95.53 60.3284L96.6808 60.823C96.9111 60.9224 97.1298 61.0359 97.3361 61.1635C97.542 61.2915 97.7193 61.4394 97.868 61.6084C98.0163 61.7778 98.1336 61.9758 98.2202 62.2024C98.3067 62.429 98.3502 62.6913 98.3502 62.9878C98.3502 63.3093 98.2864 63.6101 98.1584 63.89C98.0304 64.1709 97.8473 64.4162 97.6083 64.6261C97.3688 64.8366 97.0801 65.0019 96.7421 65.1216C96.4041 65.2405 96.0209 65.3002 95.5921 65.3002Z" fill="white"/>
<path d="M100.316 65.1523V57.038H101.343V60.4394H105.115V57.038H106.154V65.1523H105.115V61.33H101.343V65.1523H100.316Z" fill="white"/>
<path d="M111.744 64.3975C112.107 64.3975 112.435 64.3196 112.728 64.1626C113.02 64.0057 113.272 63.7816 113.482 63.4887C113.693 63.1958 113.855 62.8458 113.971 62.4369C114.086 62.0293 114.144 61.5699 114.144 61.0583C114.144 60.5549 114.086 60.1022 113.971 59.6975C113.855 59.2936 113.693 58.9514 113.482 58.671C113.272 58.391 113.02 58.1739 112.728 58.0219C112.435 57.8691 112.107 57.7928 111.744 57.7928C111.382 57.7928 111.054 57.8691 110.761 58.0219C110.469 58.1739 110.217 58.391 110.007 58.671C109.797 58.9514 109.633 59.2936 109.518 59.6975C109.403 60.1022 109.345 60.5549 109.345 61.0583C109.345 61.5699 109.403 62.0293 109.518 62.4369C109.633 62.8458 109.797 63.1958 110.007 63.4887C110.217 63.7816 110.469 64.0057 110.761 64.1626C111.054 64.3196 111.382 64.3975 111.744 64.3975ZM111.744 65.3002C111.233 65.3002 110.766 65.2016 110.34 65.0035C109.916 64.806 109.551 64.5234 109.246 64.1564C108.941 63.7898 108.704 63.3441 108.535 62.8205C108.366 62.2969 108.282 61.7095 108.282 61.0583C108.282 60.4071 108.366 59.8238 108.535 59.3085C108.704 58.7927 108.941 58.3562 109.246 57.997C109.551 57.6383 109.916 57.3641 110.34 57.1747C110.766 56.9846 111.233 56.8902 111.744 56.8902C112.256 56.8902 112.724 56.9871 113.149 57.1806C113.573 57.3748 113.94 57.6507 114.249 58.009C114.558 58.3682 114.797 58.8052 114.966 59.3206C115.135 59.8359 115.22 60.415 115.22 61.0583C115.22 61.7095 115.135 62.2969 114.966 62.8205C114.797 63.3441 114.558 63.7898 114.249 64.1564C113.94 64.5234 113.573 64.806 113.149 65.0035C112.724 65.2016 112.256 65.3002 111.744 65.3002Z" fill="white"/>
<path d="M118.362 61.0956H119.573C120.283 61.0956 120.809 60.9614 121.151 60.6933C121.493 60.4257 121.664 60.0024 121.664 59.4257C121.664 58.84 121.485 58.4344 121.126 58.2071C120.767 57.9809 120.233 57.8674 119.524 57.8674H118.362V61.0956ZM117.335 65.1523V57.038H119.648C120.102 57.038 120.516 57.0803 120.891 57.1619C121.266 57.2443 121.585 57.3785 121.849 57.5641C122.113 57.7494 122.319 57.9954 122.468 58.3002C122.616 58.6051 122.691 58.9809 122.691 59.4257C122.691 59.8545 122.618 60.2249 122.474 60.5388C122.33 60.852 122.126 61.1117 121.862 61.318C121.598 61.5243 121.282 61.6789 120.916 61.7816C120.549 61.8852 120.143 61.9361 119.697 61.9361H118.362V65.1523H117.335Z" fill="white"/>
<path d="M29.0853 26.1077L19.8854 1.69257L10.6602 26.1077H29.0853ZM41.3942 43.2437H35.5301L29.7428 27.8521H10.0027L4.18962 43.2437H0.5L18.0407 0.706635H23.8286L41.3942 43.2437Z" fill="white"/>
<path d="M80.5175 0.706635V43.269H76.3974V43.2437L52.5635 4.09393V43.269H48.4438V0.706635H52.5887L76.3974 39.8829V0.706635H80.5175Z" fill="white"/>
<path d="M117.287 5.11664C117.312 5.1415 117.337 5.16685 117.388 5.1921C117.362 5.16685 117.337 5.16685 117.287 5.1415V5.11664ZM122.14 26.6255L127.574 26.524C122.321 51.4524 88.831 46.5846 88.9287 22.0241C88.6226 6.27984 105.262 -4.69756 118.273 3.65022C123.282 6.90618 126.794 12.1795 127.75 18.4616L123.758 18.3857C124.055 -0.941628 103.258 -0.677768 96.183 14.3675C83.6373 40.0735 112.399 51.7937 122.14 26.6255Z" fill="white"/>
<path d="M159.131 26.1077L149.931 1.69257L140.706 26.1077H159.131ZM171.44 43.2437H165.576L159.789 27.8521H140.049L134.236 43.2437H130.546L148.087 0.706635H153.874L171.44 43.2437Z" fill="white"/>
</svg>
