<svg width="121" height="121" viewBox="0 0 121 121" fill="none" xmlns="http://www.w3.org/2000/svg">
<rect x="-10" y="40.665" width="104" height="104" rx="30" transform="rotate(-29.154 -10 40.665)" fill="#02F8C0"/>
</svg>
