<svg width="32" height="32" viewBox="0 0 32 32" fill="none" xmlns="http://www.w3.org/2000/svg">
<path d="M17.4142 16L25.7071 7.70712C25.8945 7.51954 25.9997 7.26526 25.9996 7.00015C25.9995 6.73505 25.8942 6.48083 25.7067 6.29338C25.5193 6.10592 25.265 6.00057 24.9999 6.00049C24.7348 6.00041 24.4805 6.10559 24.293 6.29293L16.0001 14.5858L7.70715 6.29293C7.51958 6.10559 7.26529 6.00041 7.00019 6.00049C6.73508 6.00057 6.48086 6.10592 6.29341 6.29338C6.10595 6.48083 6.0006 6.73505 6.00052 7.00015C6.00044 7.26526 6.10563 7.51954 6.29296 7.70712L14.5859 16L6.29296 24.2929C6.20001 24.3858 6.12626 24.496 6.07593 24.6174C6.0256 24.7387 5.99968 24.8688 5.99963 25.0002C5.99959 25.1315 6.02544 25.2616 6.07569 25.383C6.12595 25.5044 6.19963 25.6147 6.29252 25.7076C6.38542 25.8005 6.4957 25.8741 6.61708 25.9244C6.73846 25.9746 6.86856 26.0005 6.99993 26.0004C7.1313 26.0004 7.26138 25.9745 7.38272 25.9241C7.50407 25.8738 7.61431 25.8001 7.70715 25.7071L16.0001 17.4142L24.293 25.7071C24.4805 25.8945 24.7348 25.9996 24.9999 25.9996C25.265 25.9995 25.5193 25.8941 25.7067 25.7067C25.8942 25.5192 25.9995 25.265 25.9996 24.9999C25.9997 24.7348 25.8945 24.4805 25.7071 24.2929L17.4142 16Z" fill="#A3AED0"/>
</svg>
